{
  "fields": [
    {
      "fieldName": "document",
      "fieldType": "String"
    },
    {
      "fieldName": "demandedBy",
      "fieldType": "String"
    },
    {
      "fieldName": "description",
      "fieldType": "String"
    },
    {
      "fieldName": "demandType",
      "fieldType": "String"
    },
    {
      "fieldName": "status",
      "fieldType": "DemandType",
      "fieldValues": "WAITING,CONFIRMED,DENIED"
    },
    {
      "fieldName": "processedBy",
      "fieldType": "String"
    },
    {
      "fieldName": "entityId",
      "fieldType": "Long"
    },
    {
      "fieldName": "processDescription",
      "fieldType": "String"
    }
  ],
  "relationships": [],
  "service": "serviceImpl",
  "dto": "no",
  "jpaMetamodelFiltering": false,
  "readOnly": false,
  "pagination": "no",
  "name": "Demand",
  "changelogDate": "20210824080453"
}
