{
  "fields": [
    {
      "fieldName": "city",
      "fieldType": "String"
    },
    {
      "fieldName": "totalPlaces",
      "fieldType": "Integer"
    },
    {
      "fieldName": "date",
      "fieldType": "LocalDate"
    },
    {
      "fieldName": "subject",
      "fieldType": "String"
    },
    {
      "fieldName": "unit",
      "fieldType": "String"
    },
    {
      "fieldName": "totalAttendee",
      "fieldType": "Integer"
    },
    {
      "fieldName": "attendee",
      "fieldType": "Integer"
    },
    {
      "fieldName": "type",
      "fieldType": "String"
    },
    {
      "fieldName": "finalized",
      "fieldType": "Boolean"
    }
  ],
  "relationships": [
    {
      "relationshipName": "meetingAttendee",
      "otherEntityName": "meetingAttendee",
      "relationshipType": "one-to-many",
      "otherEntityRelationshipName": "meeting"
    }
  ],
  "service": "serviceImpl",
  "dto": "no",
  "jpaMetamodelFiltering": false,
  "readOnly": false,
  "pagination": "no",
  "name": "Meeting",
  "changelogDate": "20210721115907"
}
