{
  "fields": [
    {
      "fieldName": "city",
      "fieldType": "String"
    },
    {
      "fieldName": "startYear",
      "fieldType": "Integer"
    },
    {
      "fieldName": "endYear",
      "fieldType": "Integer"
    },
    {
      "fieldName": "deleted",
      "fieldType": "Boolean"
    }
  ],
  "relationships": [
    {
      "relationshipName": "person",
      "otherEntityName": "person",
      "relationshipType": "many-to-one",
      "otherEntityField": "id"
    }
  ],
  "service": "serviceImpl",
  "dto": "no",
  "jpaMetamodelFiltering": false,
  "readOnly": false,
  "pagination": "no",
  "name": "PastActivity",
  "changelogDate": "20210721113628"
}
