{
  "fields": [
    {
      "fieldName": "city",
      "fieldType": "String"
    },
    {
      "fieldName": "phoneNumber",
      "fieldType": "String"
    }
  ],
  "relationships": [],
  "service": "serviceImpl",
  "dto": "no",
  "jpaMetamodelFiltering": false,
  "readOnly": false,
  "pagination": "no",
  "name": "PayPhone",
  "changelogDate": "20210721114452"
}
